4 R | dss-powersim
…
If we call parameter_search() it will return a single replication of simulations for each combination of parameter values in pgrid.

parameter_search()

## # A tibble: 420 × 8
##    effect   group    term           estimate std.error statistic    df   p.value
##    <chr>    <chr>    <chr>             <dbl>     <dbl>     <dbl> <dbl>     <dbl>
##  1 fixed    <NA>     (Intercept)      58.3        2.97    19.7    10.4  1.42e- 9
##  2 fixed    <NA>     genre_i          -0.383      1.98    -0.194  12.9  8.49e- 1
##  3 ran_pars song_id  sd__(Intercep…    2.62      NA       NA      NA   NA       
##  4 ran_pars subj_id  sd__(Intercep…    8.58      NA       NA      NA   NA       
##  5 ran_pars subj_id  cor__(Interce…   -0.708     NA       NA      NA   NA       
##  6 ran_pars subj_id  sd__genre_i       3.24      NA       NA      NA   NA       
##  7 ran_pars Residual sd__Observati…    8.62      NA       NA      NA   NA       
##  8 fixed    <NA>     (Intercept)      62.8        2.15    29.1    14.6  2.36e-14
##  9 fixed    <NA>     genre_i           1.75       2.13     0.820  16.8  4.24e- 1
## 10 ran_pars song_id  sd__(Intercep…    3.52      NA       NA      NA   NA       
## # ℹ 410 more rows
…
